(kicad_symbol_lib (version 20211014) (generator kicad_symbol_editor)
  (symbol "ESP32-C3" (in_bom yes) (on_board yes)
    (property "Reference" "U" (id 0) (at -25.4 35.56 0)
      (effects (font (size 1.27 1.27)) (justify left))
    )
    (property "Value" "ESP32-C3" (id 1) (at -25.4 33.02 0)
      (effects (font (size 1.27 1.27)) (justify left))
    )
    (property "Footprint" "Package_DFN_QFN:QFN-32-1EP_5x5mm_P0.5mm_EP3.45x3.45mm" (id 2) (at 0 -30.48 0)
      (effects (font (size 1.27 1.27)) hide)
    )
    (property "Datasheet" "https://www.espressif.com/sites/default/files/documentation/esp32-c3_datasheet_en.pdf" (id 3) (at 0 -33.02 0)
      (effects (font (size 1.27 1.27)) hide)
    )
    (property "ki_description" "ESP32-C3 family is an ultra-low-power MCU-based SoC solution that supports 2.4 GHz Wi-Fi and Bluetooth®Low Energy (Bluetooth LE)." (id 4) (at 0 0 0)
      (effects (font (size 1.27 1.27)) hide)
    )
    (symbol "ESP32-C3_0_0"
      (text "ESP32-C3" (at 0 -22.86 0)
        (effects (font (size 2.54 2.54)))
      )
      (pin bidirectional line (at -27.94 27.94 0) (length 2.54)
        (name "LNA_IN" (effects (font (size 1.27 1.27))))
        (number "1" (effects (font (size 1.27 1.27))))
      )
      (pin bidirectional line (at -27.94 2.54 0) (length 2.54)
        (name "MTDI/GPIO5/ADC2_CH0" (effects (font (size 1.27 1.27))))
        (number "10" (effects (font (size 1.27 1.27))))
      )
      (pin power_in line (at -27.94 -22.86 0) (length 2.54)
        (name "VDD3P3_RTC" (effects (font (size 1.27 1.27))))
        (number "11" (effects (font (size 1.27 1.27))))
      )
      (pin bidirectional line (at -27.94 0 0) (length 2.54)
        (name "MTCK/GPIO6" (effects (font (size 1.27 1.27))))
        (number "12" (effects (font (size 1.27 1.27))))
      )
      (pin bidirectional line (at -27.94 -2.54 0) (length 2.54)
        (name "MTDO/GPIO7" (effects (font (size 1.27 1.27))))
        (number "13" (effects (font (size 1.27 1.27))))
      )
      (pin bidirectional line (at 27.94 -12.7 180) (length 2.54)
        (name "GPIO8" (effects (font (size 1.27 1.27))))
        (number "14" (effects (font (size 1.27 1.27))))
      )
      (pin bidirectional line (at 27.94 -10.16 180) (length 2.54)
        (name "GPIO9/BOOT" (effects (font (size 1.27 1.27))))
        (number "15" (effects (font (size 1.27 1.27))))
      )
      (pin bidirectional line (at 27.94 -7.62 180) (length 2.54)
        (name "GPIO10" (effects (font (size 1.27 1.27))))
        (number "16" (effects (font (size 1.27 1.27))))
      )
      (pin power_in line (at -27.94 -25.4 0) (length 2.54)
        (name "VDD3P3_CPU" (effects (font (size 1.27 1.27))))
        (number "17" (effects (font (size 1.27 1.27))))
      )
      (pin bidirectional line (at 27.94 -5.08 180) (length 2.54)
        (name "VDD_SPI/GPIO11" (effects (font (size 1.27 1.27))))
        (number "18" (effects (font (size 1.27 1.27))))
      )
      (pin bidirectional line (at 27.94 -2.54 180) (length 2.54)
        (name "SPIHD/GPIO12" (effects (font (size 1.27 1.27))))
        (number "19" (effects (font (size 1.27 1.27))))
      )
      (pin power_in line (at -27.94 -20.32 0) (length 2.54)
        (name "VDD3P3" (effects (font (size 1.27 1.27))))
        (number "2" (effects (font (size 1.27 1.27))))
      )
      (pin bidirectional line (at 27.94 0 180) (length 2.54)
        (name "SPIWP/GPIO13" (effects (font (size 1.27 1.27))))
        (number "20" (effects (font (size 1.27 1.27))))
      )
      (pin bidirectional line (at 27.94 2.54 180) (length 2.54)
        (name "SPICS0/GPIO14" (effects (font (size 1.27 1.27))))
        (number "21" (effects (font (size 1.27 1.27))))
      )
      (pin bidirectional line (at 27.94 5.08 180) (length 2.54)
        (name "SPICLK/GPIO15" (effects (font (size 1.27 1.27))))
        (number "22" (effects (font (size 1.27 1.27))))
      )
      (pin bidirectional line (at 27.94 7.62 180) (length 2.54)
        (name "SPID/GPIO16" (effects (font (size 1.27 1.27))))
        (number "23" (effects (font (size 1.27 1.27))))
      )
      (pin bidirectional line (at 27.94 10.16 180) (length 2.54)
        (name "SPIQ/GPIO17" (effects (font (size 1.27 1.27))))
        (number "24" (effects (font (size 1.27 1.27))))
      )
      (pin bidirectional line (at 27.94 17.78 180) (length 2.54)
        (name "GPIO18/USB_D-" (effects (font (size 1.27 1.27))))
        (number "25" (effects (font (size 1.27 1.27))))
      )
      (pin bidirectional line (at 27.94 20.32 180) (length 2.54)
        (name "GPIO19/USB_D+" (effects (font (size 1.27 1.27))))
        (number "26" (effects (font (size 1.27 1.27))))
      )
      (pin bidirectional line (at 27.94 25.4 180) (length 2.54)
        (name "U0RXD/GPIO20" (effects (font (size 1.27 1.27))))
        (number "27" (effects (font (size 1.27 1.27))))
      )
      (pin bidirectional line (at 27.94 27.94 180) (length 2.54)
        (name "U0TXD/GPIO21" (effects (font (size 1.27 1.27))))
        (number "28" (effects (font (size 1.27 1.27))))
      )
      (pin output line (at -27.94 12.7 0) (length 2.54)
        (name "XTAL_N" (effects (font (size 1.27 1.27))))
        (number "29" (effects (font (size 1.27 1.27))))
      )
      (pin input line (at -27.94 10.16 0) (length 2.54)
        (name "XTAL_P" (effects (font (size 1.27 1.27))))
        (number "30" (effects (font (size 1.27 1.27))))
      )
      (pin power_in line (at -27.94 -17.78 0) (length 2.54)
        (name "VDDA" (effects (font (size 1.27 1.27))))
        (number "31" (effects (font (size 1.27 1.27))))
      )
      (pin power_in line (at 27.94 -25.4 180) (length 2.54)
        (name "GND" (effects (font (size 1.27 1.27))))
        (number "33" (effects (font (size 1.27 1.27))))
      )
      (pin output line (at -27.94 20.32 0) (length 2.54)
        (name "XTAL_32K_P/ADC1_CH0" (effects (font (size 1.27 1.27))))
        (number "4" (effects (font (size 1.27 1.27))))
      )
      (pin input line (at -27.94 17.78 0) (length 2.54)
        (name "XTAL_32K_N/ADC1_CH1" (effects (font (size 1.27 1.27))))
        (number "5" (effects (font (size 1.27 1.27))))
      )
      (pin bidirectional line (at 27.94 -17.78 180) (length 2.54)
        (name "GPIO2/ADC1_CH2" (effects (font (size 1.27 1.27))))
        (number "6" (effects (font (size 1.27 1.27))))
      )
      (pin input line (at -27.94 22.86 0) (length 2.54)
        (name "CHIP_EN" (effects (font (size 1.27 1.27))))
        (number "7" (effects (font (size 1.27 1.27))))
      )
      (pin bidirectional line (at 27.94 -15.24 180) (length 2.54)
        (name "GPIO3/ADC1_CH3" (effects (font (size 1.27 1.27))))
        (number "8" (effects (font (size 1.27 1.27))))
      )
      (pin bidirectional line (at -27.94 5.08 0) (length 2.54)
        (name "MTMS/GPIO4/ADC1_CH4" (effects (font (size 1.27 1.27))))
        (number "9" (effects (font (size 1.27 1.27))))
      )
    )
    (symbol "ESP32-C3_0_1"
      (rectangle (start -25.4 30.48) (end 25.4 -27.94)
        (stroke (width 0.254) (type default) (color 0 0 0 0))
        (fill (type background))
      )
      (pin passive line (at -27.94 -20.32 0) (length 2.54) hide
        (name "VDD3P3" (effects (font (size 1.27 1.27))))
        (number "3" (effects (font (size 1.27 1.27))))
      )
      (pin passive line (at -27.94 -17.78 0) (length 2.54) hide
        (name "VDDA" (effects (font (size 1.27 1.27))))
        (number "32" (effects (font (size 1.27 1.27))))
      )
    )
  )
)
