(module Monerodev:MountingHole_1.6mm (layer F.Cu) (tedit 5B924765)
  (descr "Mounting Hole 1.6mm, no annular")
  (tags "mounting hole 1.6mm no annular")
  (attr virtual)
  (fp_text reference REF** (at 0 -3.2) (layer F.SilkS)
    (effects (font (size 1 1) (thickness 0.15)))
  )
  (fp_text value MountingHole_1.6mm (at 0 3.2) (layer F.Fab)
    (effects (font (size 1 1) (thickness 0.15)))
  )
  (fp_text user %R (at 0.3 0) (layer F.Fab)
    (effects (font (size 1 1) (thickness 0.15)))
  )
  (fp_circle (center 0 0) (end 1.6 0) (layer Cmts.User) (width 0.15))
  (fp_circle (center 0 0) (end 1.85 0) (layer F.CrtYd) (width 0.05))
  (pad "" np_thru_hole circle (at 0 0) (size 1.6 1.6) (drill 1.6) (layers *.Cu *.Mask))
)
