(footprint Monerodev:NFCAntenna_65mm (version 20211014) (generator pcbnew)
  (layer "F.Cu")
  (tedit 62E0F482)
  (attr board_only exclude_from_pos_files exclude_from_bom)
  (fp_text reference "AE***" (at 0 -2.54) (layer "F.SilkS")
    (effects (font (size 1.524 1.524) (thickness 0.3)))
    (tstamp 3466cda7-8b6d-422c-92e4-d22bbe2d4a4d)
  )
  (fp_text value "NFCAntenna_65mm" (at 0.75 2.54) (layer "F.SilkS") hide
    (effects (font (size 1.524 1.524) (thickness 0.3)))
    (tstamp a76fbfb4-5989-4acc-8232-260830730951)
  )
  (fp_poly (pts
      (xy 3.119541 -22.784491)
      (xy 5.130456 -22.783811)
      (xy 7.125486 -22.782738)
      (xy 9.097507 -22.781271)
      (xy 11.039394 -22.779412)
      (xy 12.944025 -22.77716)
      (xy 14.804275 -22.774515)
      (xy 16.613021 -22.771476)
      (xy 18.363139 -22.768044)
      (xy 20.047504 -22.76422)
      (xy 21.658994 -22.760002)
      (xy 23.190484 -22.755391)
      (xy 24.634851 -22.750386)
      (xy 25.984971 -22.744989)
      (xy 27.233719 -22.739199)
      (xy 28.373974 -22.733015)
      (xy 29.398609 -22.726438)
      (xy 30.300503 -22.719469)
      (xy 31.07253 -22.712106)
      (xy 31.707568 -22.70435)
      (xy 32.198492 -22.696201)
      (xy 32.538178 -22.687659)
      (xy 32.719504 -22.678723)
      (xy 32.749066 -22.673733)
      (xy 32.759906 -22.579363)
      (xy 32.770189 -22.324142)
      (xy 32.779915 -21.916553)
      (xy 32.789084 -21.365079)
      (xy 32.797696 -20.678202)
      (xy 32.805751 -19.864404)
      (xy 32.81325 -18.932167)
      (xy 32.820191 -17.889975)
      (xy 32.826575 -16.746308)
      (xy 32.832402 -15.50965)
      (xy 32.837673 -14.188483)
      (xy 32.842386 -12.79129)
      (xy 32.846543 -11.326551)
      (xy 32.850142 -9.802751)
      (xy 32.853185 -8.228371)
      (xy 32.855671 -6.611893)
      (xy 32.857599 -4.961801)
      (xy 32.858971 -3.286575)
      (xy 32.859786 -1.594699)
      (xy 32.860044 0.105345)
      (xy 32.859745 1.805076)
      (xy 32.858889 3.496009)
      (xy 32.857476 5.169664)
      (xy 32.855506 6.817558)
      (xy 32.852979 8.431208)
      (xy 32.849895 10.002132)
      (xy 32.846254 11.521848)
      (xy 32.842056 12.981874)
      (xy 32.837302 14.373727)
      (xy 32.83199 15.688925)
      (xy 32.826121 16.918985)
      (xy 32.819696 18.055426)
      (xy 32.812713 19.089764)
      (xy 32.805174 20.013518)
      (xy 32.797077 20.818205)
      (xy 32.788424 21.495343)
      (xy 32.779214 22.03645)
      (xy 32.769446 22.433043)
      (xy 32.759122 22.67664)
      (xy 32.749066 22.7584)
      (xy 32.656317 22.767466)
      (xy 32.401294 22.776146)
      (xy 31.991055 22.78444)
      (xy 31.432658 22.792347)
      (xy 30.733163 22.79987)
      (xy 29.899627 22.807006)
      (xy 28.93911 22.813756)
      (xy 27.858669 22.82012)
      (xy 26.665363 22.826098)
      (xy 25.36625 22.831691)
      (xy 23.96839 22.836897)
      (xy 22.478841 22.841717)
      (xy 20.90466 22.846152)
      (xy 19.252907 22.8502)
      (xy 17.530641 22.853863)
      (xy 15.744918 22.85714)
      (xy 13.9028 22.86003)
      (xy 12.011342 22.862535)
      (xy 10.077605 22.864654)
      (xy 8.108646 22.866387)
      (xy 6.111525 22.867734)
      (xy 4.093299 22.868695)
      (xy 2.061028 22.86927)
      (xy 0.021769 22.869459)
      (xy -2.017419 22.869262)
      (xy -4.049477 22.868679)
      (xy -6.067348 22.86771)
      (xy -8.063971 22.866356)
      (xy -10.032289 22.864615)
      (xy -11.965244 22.862488)
      (xy -13.855776 22.859976)
      (xy -15.696828 22.857077)
      (xy -17.481341 22.853793)
      (xy -19.202256 22.850123)
      (xy -20.852515 22.846066)
      (xy -22.425059 22.841624)
      (xy -23.91283 22.836796)
      (xy -25.30877 22.831582)
      (xy -26.605819 22.825982)
      (xy -27.79692 22.819996)
      (xy -28.875013 22.813624)
      (xy -29.833041 22.806866)
      (xy -30.663945 22.799722)
      (xy -31.360666 22.792192)
      (xy -31.916145 22.784276)
      (xy -32.323325 22.775974)
      (xy -32.575147 22.767287)
      (xy -32.6644 22.7584)
      (xy -32.710261 22.635913)
      (xy -32.742061 22.369096)
      (xy -32.760427 21.949614)
      (xy -32.766 21.403733)
      (xy -32.766 20.150667)
      (xy -32.173334 20.150667)
      (xy -32.173334 22.267333)
      (xy 32.258 22.267333)
      (xy 32.258 -22.182667)
      (xy -30.988 -22.182667)
      (xy -30.988 21.082)
      (xy 31.072666 21.082)
      (xy 31.072666 -20.997567)
      (xy 0.656166 -20.976283)
      (xy -29.760334 -20.955)
      (xy -29.760334 19.854333)
      (xy 29.845 19.854333)
      (xy 29.845 -19.769667)
      (xy 0.656166 -19.790955)
      (xy -28.532667 -19.812243)
      (xy -28.532667 18.626667)
      (xy 28.617333 18.626667)
      (xy 28.617333 -18.542)
      (xy -27.347334 -18.542)
      (xy -27.347334 17.441333)
      (xy 27.432 17.441333)
      (xy 27.432 -17.356667)
      (xy -26.162 -17.356667)
      (xy -26.162 16.256)
      (xy 26.246666 16.256)
      (xy 26.246666 -16.171333)
      (xy -24.976667 -16.171333)
      (xy -24.976667 15.324667)
      (xy -25.569334 15.324667)
      (xy -25.569334 -0.618067)
      (xy -25.569099 -2.644967)
      (xy -25.56837 -4.508174)
      (xy -25.567111 -6.213329)
      (xy -25.565287 -7.766071)
      (xy -25.562861 -9.172041)
      (xy -25.559799 -10.436878)
      (xy -25.556064 -11.566223)
      (xy -25.551621 -12.565716)
      (xy -25.546434 -13.440997)
      (xy -25.540467 -14.197706)
      (xy -25.533684 -14.841483)
      (xy -25.526051 -15.377968)
      (xy -25.51753 -15.812801)
      (xy -25.508087 -16.151622)
      (xy -25.497686 -16.400072)
      (xy -25.486291 -16.56379)
      (xy -25.473866 -16.648417)
      (xy -25.467734 -16.6624)
      (xy -25.374017 -16.672527)
      (xy -25.118875 -16.682169)
      (xy -24.710217 -16.691327)
      (xy -24.155949 -16.700001)
      (xy -23.463981 -16.708191)
      (xy -22.642219 -16.715896)
      (xy -21.698573 -16.723117)
      (xy -20.640949 -16.729854)
      (xy -19.477256 -16.736107)
      (xy -18.215402 -16.741876)
      (xy -16.863294 -16.74716)
      (xy -15.428841 -16.75196)
      (xy -13.91995 -16.756276)
      (xy -12.344529 -16.760108)
      (xy -10.710487 -16.763455)
      (xy -9.025731 -16.766318)
      (xy -7.298169 -16.768697)
      (xy -5.535709 -16.770592)
      (xy -3.746259 -16.772003)
      (xy -1.937727 -16.772929)
      (xy -0.11802 -16.773371)
      (xy 1.704952 -16.773329)
      (xy 3.523284 -16.772803)
      (xy 5.329065 -16.771792)
      (xy 7.114389 -16.770297)
      (xy 8.871348 -16.768318)
      (xy 10.592034 -16.765855)
      (xy 12.268538 -16.762908)
      (xy 13.892953 -16.759476)
      (xy 15.457371 -16.75556)
      (xy 16.953884 -16.75116)
      (xy 18.374584 -16.746276)
      (xy 19.711563 -16.740907)
      (xy 20.956914 -16.735055)
      (xy 22.102728 -16.728718)
      (xy 23.141097 -16.721896)
      (xy 24.064114 -16.714591)
      (xy 24.86387 -16.706801)
      (xy 25.532458 -16.698527)
      (xy 26.06197 -16.689769)
      (xy 26.444497 -16.680527)
      (xy 26.672133 -16.6708)
      (xy 26.737733 -16.6624)
      (xy 26.75033 -16.566409)
      (xy 26.762168 -16.310994)
      (xy 26.773247 -15.906067)
      (xy 26.783566 -15.361534)
      (xy 26.793126 -14.687306)
      (xy 26.801927 -13.893291)
      (xy 26.809968 -12.989398)
      (xy 26.81725 -11.985536)
      (xy 26.823772 -10.891615)
      (xy 26.829535 -9.717542)
      (xy 26.834538 -8.473228)
      (xy 26.838782 -7.168581)
      (xy 26.842267 -5.81351)
      (xy 26.844992 -4.417924)
      (xy 26.846958 -2.991733)
      (xy 26.848165 -1.544844)
      (xy 26.848612 -0.087167)
      (xy 26.848299 1.371389)
      (xy 26.847228 2.820915)
      (xy 26.845397 4.251502)
      (xy 26.842806 5.653241)
      (xy 26.839456 7.016224)
      (xy 26.835347 8.33054)
      (xy 26.830478 9.586282)
      (xy 26.82485 10.77354)
      (xy 26.818462 11.882405)
      (xy 26.811315 12.902968)
      (xy 26.803409 13.82532)
      (xy 26.794743 14.639553)
      (xy 26.785318 15.335758)
      (xy 26.775133 15.904024)
      (xy 26.764189 16.334444)
      (xy 26.752486 16.617108)
      (xy 26.740023 16.742108)
      (xy 26.737733 16.747066)
      (xy 26.64335 16.757853)
      (xy 26.387535 16.76809)
      (xy 25.978105 16.777777)
      (xy 25.422873 16.786918)
      (xy 24.729656 16.795514)
      (xy 23.906268 16.803567)
      (xy 22.960523 16.81108)
      (xy 21.900238 16.818053)
      (xy 20.733227 16.824489)
      (xy 19.467304 16.83039)
      (xy 18.110286 16.835757)
      (xy 16.669987 16.840593)
      (xy 15.154221 16.8449)
      (xy 13.570805 16.848679)
      (xy 11.927553 16.851933)
      (xy 10.232279 16.854663)
      (xy 8.4928 16.856872)
      (xy 6.71693 16.85856)
      (xy 4.912484 16.859731)
      (xy 3.087277 16.860386)
      (xy 1.249124 16.860527)
      (xy -0.59416 16.860155)
      (xy -2.43476 16.859274)
      (xy -4.264861 16.857884)
      (xy -6.076648 16.855988)
      (xy -7.862306 16.853588)
      (xy -9.61402 16.850685)
      (xy -11.323974 16.847281)
      (xy -12.984355 16.843379)
      (xy -14.587347 16.838981)
      (xy -16.125134 16.834087)
      (xy -17.589903 16.828701)
      (xy -18.973837 16.822824)
      (xy -20.269122 16.816458)
      (xy -21.467943 16.809604)
      (xy -22.562486 16.802266)
      (xy -23.544934 16.794444)
      (xy -24.407473 16.786141)
      (xy -25.142287 16.777359)
      (xy -25.741563 16.768099)
      (xy -26.197485 16.758364)
      (xy -26.502237 16.748156)
      (xy -26.648006 16.737475)
      (xy -26.659838 16.733912)
      (xy -26.671721 16.670906)
      (xy -26.682566 16.508849)
      (xy -26.692392 16.243327)
      (xy -26.701219 15.869928)
      (xy -26.709064 15.384239)
      (xy -26.715947 14.781847)
      (xy -26.721886 14.05834)
      (xy -26.7269 13.209306)
      (xy -26.731008 12.230331)
      (xy -26.734229 11.117003)
      (xy -26.73658 9.864908)
      (xy -26.738082 8.469636)
      (xy -26.738753 6.926772)
      (xy -26.738611 5.231905)
      (xy -26.737676 3.380621)
      (xy -26.735966 1.368508)
      (xy -26.733705 -0.643922)
      (xy -26.712334 -17.907)
      (xy 27.982333 -17.907)
      (xy 27.982333 17.991667)
      (xy -27.897667 17.991667)
      (xy -27.897667 -19.092333)
      (xy 29.167666 -19.092333)
      (xy 29.167666 19.177)
      (xy -29.083 19.177)
      (xy -29.104347 -0.499108)
      (xy -29.106625 -2.814693)
      (xy -29.108242 -4.96509)
      (xy -29.109182 -6.954445)
      (xy -29.10943 -8.786902)
      (xy -29.108971 -10.466606)
      (xy -29.107789 -11.997703)
      (xy -29.105869 -13.384336)
      (xy -29.103195 -14.630651)
      (xy -29.099751 -15.740793)
      (xy -29.095523 -16.718906)
      (xy -29.090495 -17.569136)
      (xy -29.08465 -18.295627)
      (xy -29.077975 -18.902524)
      (xy -29.070453 -19.393972)
      (xy -29.062068 -19.774115)
      (xy -29.052806 -20.047099)
      (xy -29.042652 -20.217068)
      (xy -29.031588 -20.288168)
      (xy -29.03048 -20.289942)
      (xy -29.000611 -20.300457)
      (xy -28.925761 -20.310334)
      (xy -28.801072 -20.319591)
      (xy -28.621686 -20.328247)
      (xy -28.382745 -20.336321)
      (xy -28.079393 -20.343832)
      (xy -27.706771 -20.350797)
      (xy -27.260022 -20.357237)
      (xy -26.734288 -20.36317)
      (xy -26.124711 -20.368614)
      (xy -25.426434 -20.373589)
      (xy -24.634599 -20.378113)
      (xy -23.744349 -20.382205)
      (xy -22.750826 -20.385884)
      (xy -21.649172 -20.389169)
      (xy -20.434529 -20.392077)
      (xy -19.10204 -20.394629)
      (xy -17.646848 -20.396843)
      (xy -16.064094 -20.398738)
      (xy -14.348921 -20.400332)
      (xy -12.496472 -20.401644)
      (xy -10.501888 -20.402694)
      (xy -8.360313 -20.403499)
      (xy -6.066887 -20.404079)
      (xy -3.616755 -20.404452)
      (xy -1.005057 -20.404638)
      (xy 0.639319 -20.404667)
      (xy 3.312158 -20.404618)
      (xy 5.820823 -20.404458)
      (xy 8.17047 -20.404162)
      (xy 10.36626 -20.403708)
      (xy 12.413349 -20.403072)
      (xy 14.316896 -20.402232)
      (xy 16.08206 -20.401164)
      (xy 17.713999 -20.399845)
      (xy 19.217871 -20.398252)
      (xy 20.598835 -20.396363)
      (xy 21.862048 -20.394153)
      (xy 23.01267 -20.3916)
      (xy 24.055857 -20.388681)
      (xy 24.99677 -20.385372)
      (xy 25.840566 -20.381651)
      (xy 26.592403 -20.377495)
      (xy 27.257439 -20.372879)
      (xy 27.840834 -20.367782)
      (xy 28.347745 -20.36218)
      (xy 28.78333 -20.35605)
      (xy 29.152749 -20.349368)
      (xy 29.461158 -20.342113)
      (xy 29.713718 -20.33426)
      (xy 29.915585 -20.325787)
      (xy 30.071918 -20.31667)
      (xy 30.187875 -20.306887)
      (xy 30.268616 -20.296414)
      (xy 30.319297 -20.285228)
      (xy 30.345078 -20.273306)
      (xy 30.346952 -20.271619)
      (xy 30.361418 -20.245985)
      (xy 30.374808 -20.194947)
      (xy 30.387163 -20.112253)
      (xy 30.398523 -19.991648)
      (xy 30.40893 -19.826876)
      (xy 30.418425 -19.611684)
      (xy 30.427048 -19.339817)
      (xy 30.434841 -19.005022)
      (xy 30.441844 -18.601042)
      (xy 30.448098 -18.121624)
      (xy 30.453645 -17.560514)
      (xy 30.458525 -16.911457)
      (xy 30.46278 -16.168199)
      (xy 30.466449 -15.324485)
      (xy 30.469575 -14.37406)
      (xy 30.472199 -13.310671)
      (xy 30.47436 -12.128063)
      (xy 30.476101 -10.819981)
      (xy 30.477461 -9.380171)
      (xy 30.478483 -7.802378)
      (xy 30.479207 -6.080349)
      (xy 30.479673 -4.207828)
      (xy 30.479924 -2.178562)
      (xy 30.479999 0.013705)
      (xy 30.48 0.042333)
      (xy 30.479926 2.236689)
      (xy 30.479678 4.267966)
      (xy 30.479214 6.142419)
      (xy 30.478494 7.866301)
      (xy 30.477476 9.445868)
      (xy 30.47612 10.887375)
      (xy 30.474384 12.197074)
      (xy 30.472229 13.381221)
      (xy 30.469611 14.44607)
      (xy 30.466492 15.397877)
      (xy 30.462829 16.242894)
      (xy 30.458582 16.987376)
      (xy 30.45371 17.637579)
      (xy 30.448172 18.199756)
      (xy 30.441927 18.680162)
      (xy 30.434933 19.085051)
      (xy 30.427151 19.420678)
      (xy 30.418539 19.693297)
      (xy 30.409055 19.909163)
      (xy 30.39866 20.074529)
      (xy 30.387312 20.195652)
      (xy 30.37497 20.278784)
      (xy 30.361593 20.33018)
      (xy 30.347141 20.356095)
      (xy 30.346952 20.356286)
      (xy 30.324306 20.368194)
      (xy 30.277521 20.379377)
      (xy 30.201489 20.389858)
      (xy 30.091104 20.399659)
      (xy 29.94126 20.408803)
      (xy 29.746849 20.417312)
      (xy 29.502765 20.425209)
      (xy 29.2039 20.432515)
      (xy 28.84515 20.439253)
      (xy 28.421406 20.445446)
      (xy 27.927563 20.451117)
      (xy 27.358512 20.456286)
      (xy 26.709149 20.460978)
      (xy 25.974366 20.465214)
      (xy 25.149056 20.469017)
      (xy 24.228113 20.472409)
      (xy 23.20643 20.475413)
      (xy 22.078901 20.47805)
      (xy 20.840418 20.480345)
      (xy 19.485876 20.482318)
      (xy 18.010166 20.483992)
      (xy 16.408184 20.48539)
      (xy 14.674821 20.486534)
      (xy 12.804972 20.487447)
      (xy 10.79353 20.488151)
      (xy 8.635387 20.488668)
      (xy 6.325438 20.489021)
      (xy 3.858576 20.489233)
      (xy 1.229693 20.489325)
      (xy 0.042333 20.489333)
      (xy -2.658139 20.489286)
      (xy -5.194384 20.489129)
      (xy -7.57151 20.48884)
      (xy -9.794622 20.488396)
      (xy -11.868827 20.487776)
      (xy -13.799233 20.486956)
      (xy -15.590945 20.485914)
      (xy -17.249071 20.484629)
      (xy -18.778717 20.483077)
      (xy -20.184989 20.481235)
      (xy -21.472995 20.479083)
      (xy -22.647841 20.476596)
      (xy -23.714634 20.473753)
      (xy -24.678481 20.470532)
      (xy -25.544487 20.466909)
      (xy -26.317761 20.462863)
      (xy -27.003408 20.458371)
      (xy -27.606535 20.45341)
      (xy -28.132249 20.447959)
      (xy -28.585657 20.441995)
      (xy -28.971864 20.435495)
      (xy -29.295979 20.428437)
      (xy -29.563107 20.420798)
      (xy -29.778356 20.412557)
      (xy -29.946831 20.40369)
      (xy -30.07364 20.394175)
      (xy -30.163889 20.383991)
      (xy -30.222686 20.373114)
      (xy -30.255135 20.361521)
      (xy -30.262286 20.356286)
      (xy -30.276552 20.330887)
      (xy -30.289772 20.280187)
      (xy -30.301984 20.198022)
      (xy -30.313229 20.078228)
      (xy -30.323546 19.91464)
      (xy -30.332973 19.701097)
      (xy -30.341551 19.431433)
      (xy -30.349317 19.099485)
      (xy -30.356312 18.699089)
      (xy -30.362575 18.224082)
      (xy -30.368145 17.668301)
      (xy -30.37306 17.02558)
      (xy -30.377361 16.289757)
      (xy -30.381087 15.454668)
      (xy -30.384276 14.51415)
      (xy -30.386969 13.462037)
      (xy -30.389204 12.292168)
      (xy -30.39102 10.998378)
      (xy -30.392457 9.574503)
      (xy -30.393554 8.01438)
      (xy -30.39435 6.311845)
      (xy -30.394884 4.460735)
      (xy -30.395196 2.454885)
      (xy -30.395325 0.288132)
      (xy -30.395334 -0.550333)
      (xy -30.395263 -2.777805)
      (xy -30.395022 -4.842107)
      (xy -30.394574 -6.749403)
      (xy -30.393879 -8.505857)
      (xy -30.392898 -10.117633)
      (xy -30.39159 -11.590893)
      (xy -30.389918 -12.931803)
      (xy -30.387842 -14.146525)
      (xy -30.385322 -15.241224)
      (xy -30.38232 -16.222062)
      (xy -30.378796 -17.095204)
      (xy -30.374711 -17.866813)
      (xy -30.370026 -18.543054)
      (xy -30.364702 -19.130089)
      (xy -30.358698 -19.634082)
      (xy -30.351977 -20.061198)
      (xy -30.344499 -20.4176)
      (xy -30.336224 -20.709451)
      (xy -30.327114 -20.942915)
      (xy -30.317129 -21.124156)
      (xy -30.30623 -21.259338)
      (xy -30.294378 -21.354624)
      (xy -30.281533 -21.416179)
      (xy -30.267656 -21.450164)
      (xy -30.262286 -21.456953)
      (xy -30.239777 -21.468743)
      (xy -30.193185 -21.479823)
      (xy -30.117456 -21.490215)
      (xy -30.007535 -21.499939)
      (xy -29.858369 -21.509019)
      (xy -29.664902 -21.517476)
      (xy -29.422082 -21.525331)
      (xy -29.124852 -21.532607)
      (xy -28.768159 -21.539324)
      (xy -28.34695 -21.545505)
      (xy -27.856168 -21.551172)
      (xy -27.29076 -21.556346)
      (xy -26.645672 -21.561049)
      (xy -25.91585 -21.565302)
      (xy -25.096239 -21.569128)
      (xy -24.181784 -21.572549)
      (xy -23.167431 -21.575585)
      (xy -22.048127 -21.578259)
      (xy -20.818817 -21.580592)
      (xy -19.474446 -21.582606)
      (xy -18.00996 -21.584324)
      (xy -16.420305 -21.585765)
      (xy -14.700426 -21.586954)
      (xy -12.84527 -21.58791)
      (xy -10.849782 -21.588657)
      (xy -8.708907 -21.589215)
      (xy -6.417591 -21.589606)
      (xy -3.97078 -21.589852)
      (xy -1.36342 -21.589975)
      (xy 0.666447 -21.59)
      (xy 3.508513 -21.589883)
      (xy 6.185337 -21.589521)
      (xy 8.701014 -21.588902)
      (xy 11.059634 -21.588013)
      (xy 13.265292 -21.586839)
      (xy 15.322078 -21.585367)
      (xy 17.234085 -21.583584)
      (xy 19.005406 -21.581476)
      (xy 20.640134 -21.57903)
      (xy 22.14236 -21.576232)
      (xy 23.516177 -21.57307)
      (xy 24.765678 -21.569528)
      (xy 25.894955 -21.565595)
      (xy 26.9081 -21.561257)
      (xy 27.809206 -21.556499)
      (xy 28.602365 -21.551309)
      (xy 29.29167 -21.545674)
      (xy 29.881212 -21.539579)
      (xy 30.375086 -21.533011)
      (xy 30.777382 -21.525957)
      (xy 31.092194 -21.518404)
      (xy 31.323613 -21.510337)
      (xy 31.475733 -21.501744)
      (xy 31.552645 -21.492611)
      (xy 31.563733 -21.4884)
      (xy 31.574861 -21.393765)
      (xy 31.585401 -21.138512)
      (xy 31.595353 -20.731357)
      (xy 31.604718 -20.181014)
      (xy 31.613494 -19.4962)
      (xy 31.621683 -18.685629)
      (xy 31.629284 -17.758015)
      (xy 31.636297 -16.722075)
      (xy 31.642722 -15.586522)
      (xy 31.648559 -14.360073)
      (xy 31.653809 -13.051441)
      (xy 31.65847 -11.669343)
      (xy 31.662544 -10.222493)
      (xy 31.66603 -8.719607)
      (xy 31.668928 -7.169398)
      (xy 31.671238 -5.580583)
      (xy 31.672961 -3.961877)
      (xy 31.674095 -2.321993)
      (xy 31.674642 -0.669649)
      (xy 31.674601 0.986442)
      (xy 31.673971 2.637565)
      (xy 31.672755 4.275004)
      (xy 31.67095 5.890045)
      (xy 31.668557 7.473971)
      (xy 31.665577 9.018069)
      (xy 31.662008 10.513623)
      (xy 31.657852 11.951919)
      (xy 31.653108 13.32424)
      (xy 31.647776 14.621873)
      (xy 31.641856 15.836102)
      (xy 31.635349 16.958211)
      (xy 31.628253 17.979487)
      (xy 31.62057 18.891213)
      (xy 31.612299 19.684676)
      (xy 31.60344 20.351159)
      (xy 31.593993 20.881948)
      (xy 31.583958 21.268328)
      (xy 31.573336 21.501583)
      (xy 31.563733 21.573066)
      (xy 31.470833 21.582298)
      (xy 31.215791 21.591129)
      (xy 30.805798 21.59956)
      (xy 30.248045 21.60759)
      (xy 29.549723 21.615219)
      (xy 28.718023 21.622448)
      (xy 27.760135 21.629277)
      (xy 26.683251 21.635705)
      (xy 25.494561 21.641732)
      (xy 24.201256 21.647359)
      (xy 22.810528 21.652585)
      (xy 21.329567 21.657411)
      (xy 19.765564 21.661836)
      (xy 18.125709 21.665861)
      (xy 16.417195 21.669485)
      (xy 14.647212 21.672708)
      (xy 12.82295 21.675531)
      (xy 10.951601 21.677954)
      (xy 9.040356 21.679976)
      (xy 7.096405 21.681597)
      (xy 5.126939 21.682818)
      (xy 3.13915 21.683639)
      (xy 1.140228 21.684058)
      (xy -0.862636 21.684078)
      (xy -2.862251 21.683696)
      (xy -4.851426 21.682915)
      (xy -6.82297 21.681732)
      (xy -8.769693 21.68015)
      (xy -10.684403 21.678166)
      (xy -12.559909 21.675782)
      (xy -14.38902 21.672998)
      (xy -16.164547 21.669813)
      (xy -17.879297 21.666227)
      (xy -19.52608 21.662241)
      (xy -21.097704 21.657855)
      (xy -22.58698 21.653067)
      (xy -23.986715 21.64788)
      (xy -25.28972 21.642292)
      (xy -26.488803 21.636303)
      (xy -27.576773 21.629913)
      (xy -28.54644 21.623124)
      (xy -29.390612 21.615933)
      (xy -30.102099 21.608342)
      (xy -30.673709 21.600351)
      (xy -31.098253 21.591959)
      (xy -31.368538 21.583166)
      (xy -31.477373 21.573973)
      (xy -31.479067 21.573067)
      (xy -31.490048 21.478566)
      (xy -31.500457 21.223329)
      (xy -31.510294 20.815953)
      (xy -31.51956 20.265033)
      (xy -31.528253 19.579167)
      (xy -31.536374 18.766949)
      (xy -31.543923 17.836977)
      (xy -31.5509 16.797847)
      (xy -31.557306 15.658155)
      (xy -31.563139 14.426498)
      (xy -31.5684 13.111472)
      (xy -31.573089 11.721673)
      (xy -31.577207 10.265697)
      (xy -31.580752 8.752141)
      (xy -31.583725 7.189602)
      (xy -31.586126 5.586675)
      (xy -31.587956 3.951956)
      (xy -31.589213 2.294043)
      (xy -31.589899 0.621532)
      (xy -31.590012 -1.056982)
      (xy -31.589553 -2.732902)
      (xy -31.588523 -4.397631)
      (xy -31.58692 -6.042573)
      (xy -31.584746 -7.659133)
      (xy -31.581999 -9.238712)
      (xy -31.578681 -10.772717)
      (xy -31.57479 -12.252549)
      (xy -31.570328 -13.669612)
      (xy -31.565293 -15.015311)
      (xy -31.559687 -16.281049)
      (xy -31.553508 -17.458229)
      (xy -31.546758 -18.538256)
      (xy -31.539435 -19.512533)
      (xy -31.531541 -20.372463)
      (xy -31.523074 -21.109451)
      (xy -31.514036 -21.7149)
      (xy -31.504426 -22.180213)
      (xy -31.494243 -22.496795)
      (xy -31.483489 -22.656048)
      (xy -31.479067 -22.673733)
      (xy -31.386244 -22.682881)
      (xy -31.131211 -22.691636)
      (xy -30.721094 -22.699997)
      (xy -30.163015 -22.707965)
      (xy -29.464098 -22.71554)
      (xy -28.631467 -22.722723)
      (xy -27.672246 -22.729511)
      (xy -26.593558 -22.735907)
      (xy -25.402528 -22.74191)
      (xy -24.106279 -22.74752)
      (xy -22.711935 -22.752736)
      (xy -21.22662 -22.75756)
      (xy -19.657457 -22.76199)
      (xy -18.011571 -22.766027)
      (xy -16.296085 -22.769671)
      (xy -14.518122 -22.772922)
      (xy -12.684807 -22.775779)
      (xy -10.803264 -22.778244)
      (xy -8.880616 -22.780316)
      (xy -6.923987 -22.781994)
      (xy -4.940501 -22.78328)
      (xy -2.937281 -22.784172)
      (xy -0.921452 -22.784672)
      (xy 1.099863 -22.784778)
    ) (layer "F.Cu") (width 0) (fill solid) (tstamp b06ce446-c27e-47df-a4e3-d10b64552c26))
  (fp_poly (pts
      (xy 3.119541 -22.784491)
      (xy 5.130456 -22.783811)
      (xy 7.125486 -22.782738)
      (xy 9.097507 -22.781271)
      (xy 11.039394 -22.779412)
      (xy 12.944025 -22.77716)
      (xy 14.804275 -22.774515)
      (xy 16.613021 -22.771476)
      (xy 18.363139 -22.768044)
      (xy 20.047504 -22.76422)
      (xy 21.658994 -22.760002)
      (xy 23.190484 -22.755391)
      (xy 24.634851 -22.750386)
      (xy 25.984971 -22.744989)
      (xy 27.233719 -22.739199)
      (xy 28.373974 -22.733015)
      (xy 29.398609 -22.726438)
      (xy 30.300503 -22.719469)
      (xy 31.07253 -22.712106)
      (xy 31.707568 -22.70435)
      (xy 32.198492 -22.696201)
      (xy 32.538178 -22.687659)
      (xy 32.719504 -22.678723)
      (xy 32.749066 -22.673733)
      (xy 32.759906 -22.579363)
      (xy 32.770189 -22.324142)
      (xy 32.779915 -21.916553)
      (xy 32.789084 -21.365079)
      (xy 32.797696 -20.678202)
      (xy 32.805751 -19.864404)
      (xy 32.81325 -18.932167)
      (xy 32.820191 -17.889975)
      (xy 32.826575 -16.746308)
      (xy 32.832402 -15.50965)
      (xy 32.837673 -14.188483)
      (xy 32.842386 -12.79129)
      (xy 32.846543 -11.326551)
      (xy 32.850142 -9.802751)
      (xy 32.853185 -8.228371)
      (xy 32.855671 -6.611893)
      (xy 32.857599 -4.961801)
      (xy 32.858971 -3.286575)
      (xy 32.859786 -1.594699)
      (xy 32.860044 0.105345)
      (xy 32.859745 1.805076)
      (xy 32.858889 3.496009)
      (xy 32.857476 5.169664)
      (xy 32.855506 6.817558)
      (xy 32.852979 8.431208)
      (xy 32.849895 10.002132)
      (xy 32.846254 11.521848)
      (xy 32.842056 12.981874)
      (xy 32.837302 14.373727)
      (xy 32.83199 15.688925)
      (xy 32.826121 16.918985)
      (xy 32.819696 18.055426)
      (xy 32.812713 19.089764)
      (xy 32.805174 20.013518)
      (xy 32.797077 20.818205)
      (xy 32.788424 21.495343)
      (xy 32.779214 22.03645)
      (xy 32.769446 22.433043)
      (xy 32.759122 22.67664)
      (xy 32.749066 22.7584)
      (xy 32.656317 22.767466)
      (xy 32.401294 22.776146)
      (xy 31.991055 22.78444)
      (xy 31.432658 22.792347)
      (xy 30.733163 22.79987)
      (xy 29.899627 22.807006)
      (xy 28.93911 22.813756)
      (xy 27.858669 22.82012)
      (xy 26.665363 22.826098)
      (xy 25.36625 22.831691)
      (xy 23.96839 22.836897)
      (xy 22.478841 22.841717)
      (xy 20.90466 22.846152)
      (xy 19.252907 22.8502)
      (xy 17.530641 22.853863)
      (xy 15.744918 22.85714)
      (xy 13.9028 22.86003)
      (xy 12.011342 22.862535)
      (xy 10.077605 22.864654)
      (xy 8.108646 22.866387)
      (xy 6.111525 22.867734)
      (xy 4.093299 22.868695)
      (xy 2.061028 22.86927)
      (xy 0.021769 22.869459)
      (xy -2.017419 22.869262)
      (xy -4.049477 22.868679)
      (xy -6.067348 22.86771)
      (xy -8.063971 22.866356)
      (xy -10.032289 22.864615)
      (xy -11.965244 22.862488)
      (xy -13.855776 22.859976)
      (xy -15.696828 22.857077)
      (xy -17.481341 22.853793)
      (xy -19.202256 22.850123)
      (xy -20.852515 22.846066)
      (xy -22.425059 22.841624)
      (xy -23.91283 22.836796)
      (xy -25.30877 22.831582)
      (xy -26.605819 22.825982)
      (xy -27.79692 22.819996)
      (xy -28.875013 22.813624)
      (xy -29.833041 22.806866)
      (xy -30.663945 22.799722)
      (xy -31.360666 22.792192)
      (xy -31.916145 22.784276)
      (xy -32.323325 22.775974)
      (xy -32.575147 22.767287)
      (xy -32.6644 22.7584)
      (xy -32.710261 22.635913)
      (xy -32.742061 22.369096)
      (xy -32.760427 21.949614)
      (xy -32.766 21.403733)
      (xy -32.766 20.150667)
      (xy -32.173334 20.150667)
      (xy -32.173334 22.267333)
      (xy 32.258 22.267333)
      (xy 32.258 -22.182667)
      (xy -30.988 -22.182667)
      (xy -30.988 21.082)
      (xy 31.072666 21.082)
      (xy 31.072666 -20.997567)
      (xy 0.656166 -20.976283)
      (xy -29.760334 -20.955)
      (xy -29.760334 19.854333)
      (xy 29.845 19.854333)
      (xy 29.845 -19.769667)
      (xy 0.656166 -19.790955)
      (xy -28.532667 -19.812243)
      (xy -28.532667 18.626667)
      (xy 28.617333 18.626667)
      (xy 28.617333 -18.542)
      (xy -27.347334 -18.542)
      (xy -27.347334 17.441333)
      (xy 27.432 17.441333)
      (xy 27.432 -17.356667)
      (xy -26.162 -17.356667)
      (xy -26.162 16.256)
      (xy 26.246666 16.256)
      (xy 26.246666 -16.171333)
      (xy -24.976667 -16.171333)
      (xy -24.976667 15.324667)
      (xy -25.569334 15.324667)
      (xy -25.569334 -0.618067)
      (xy -25.569099 -2.644967)
      (xy -25.56837 -4.508174)
      (xy -25.567111 -6.213329)
      (xy -25.565287 -7.766071)
      (xy -25.562861 -9.172041)
      (xy -25.559799 -10.436878)
      (xy -25.556064 -11.566223)
      (xy -25.551621 -12.565716)
      (xy -25.546434 -13.440997)
      (xy -25.540467 -14.197706)
      (xy -25.533684 -14.841483)
      (xy -25.526051 -15.377968)
      (xy -25.51753 -15.812801)
      (xy -25.508087 -16.151622)
      (xy -25.497686 -16.400072)
      (xy -25.486291 -16.56379)
      (xy -25.473866 -16.648417)
      (xy -25.467734 -16.6624)
      (xy -25.374017 -16.672527)
      (xy -25.118875 -16.682169)
      (xy -24.710217 -16.691327)
      (xy -24.155949 -16.700001)
      (xy -23.463981 -16.708191)
      (xy -22.642219 -16.715896)
      (xy -21.698573 -16.723117)
      (xy -20.640949 -16.729854)
      (xy -19.477256 -16.736107)
      (xy -18.215402 -16.741876)
      (xy -16.863294 -16.74716)
      (xy -15.428841 -16.75196)
      (xy -13.91995 -16.756276)
      (xy -12.344529 -16.760108)
      (xy -10.710487 -16.763455)
      (xy -9.025731 -16.766318)
      (xy -7.298169 -16.768697)
      (xy -5.535709 -16.770592)
      (xy -3.746259 -16.772003)
      (xy -1.937727 -16.772929)
      (xy -0.11802 -16.773371)
      (xy 1.704952 -16.773329)
      (xy 3.523284 -16.772803)
      (xy 5.329065 -16.771792)
      (xy 7.114389 -16.770297)
      (xy 8.871348 -16.768318)
      (xy 10.592034 -16.765855)
      (xy 12.268538 -16.762908)
      (xy 13.892953 -16.759476)
      (xy 15.457371 -16.75556)
      (xy 16.953884 -16.75116)
      (xy 18.374584 -16.746276)
      (xy 19.711563 -16.740907)
      (xy 20.956914 -16.735055)
      (xy 22.102728 -16.728718)
      (xy 23.141097 -16.721896)
      (xy 24.064114 -16.714591)
      (xy 24.86387 -16.706801)
      (xy 25.532458 -16.698527)
      (xy 26.06197 -16.689769)
      (xy 26.444497 -16.680527)
      (xy 26.672133 -16.6708)
      (xy 26.737733 -16.6624)
      (xy 26.75033 -16.566409)
      (xy 26.762168 -16.310994)
      (xy 26.773247 -15.906067)
      (xy 26.783566 -15.361534)
      (xy 26.793126 -14.687306)
      (xy 26.801927 -13.893291)
      (xy 26.809968 -12.989398)
      (xy 26.81725 -11.985536)
      (xy 26.823772 -10.891615)
      (xy 26.829535 -9.717542)
      (xy 26.834538 -8.473228)
      (xy 26.838782 -7.168581)
      (xy 26.842267 -5.81351)
      (xy 26.844992 -4.417924)
      (xy 26.846958 -2.991733)
      (xy 26.848165 -1.544844)
      (xy 26.848612 -0.087167)
      (xy 26.848299 1.371389)
      (xy 26.847228 2.820915)
      (xy 26.845397 4.251502)
      (xy 26.842806 5.653241)
      (xy 26.839456 7.016224)
      (xy 26.835347 8.33054)
      (xy 26.830478 9.586282)
      (xy 26.82485 10.77354)
      (xy 26.818462 11.882405)
      (xy 26.811315 12.902968)
      (xy 26.803409 13.82532)
      (xy 26.794743 14.639553)
      (xy 26.785318 15.335758)
      (xy 26.775133 15.904024)
      (xy 26.764189 16.334444)
      (xy 26.752486 16.617108)
      (xy 26.740023 16.742108)
      (xy 26.737733 16.747066)
      (xy 26.64335 16.757853)
      (xy 26.387535 16.76809)
      (xy 25.978105 16.777777)
      (xy 25.422873 16.786918)
      (xy 24.729656 16.795514)
      (xy 23.906268 16.803567)
      (xy 22.960523 16.81108)
      (xy 21.900238 16.818053)
      (xy 20.733227 16.824489)
      (xy 19.467304 16.83039)
      (xy 18.110286 16.835757)
      (xy 16.669987 16.840593)
      (xy 15.154221 16.8449)
      (xy 13.570805 16.848679)
      (xy 11.927553 16.851933)
      (xy 10.232279 16.854663)
      (xy 8.4928 16.856872)
      (xy 6.71693 16.85856)
      (xy 4.912484 16.859731)
      (xy 3.087277 16.860386)
      (xy 1.249124 16.860527)
      (xy -0.59416 16.860155)
      (xy -2.43476 16.859274)
      (xy -4.264861 16.857884)
      (xy -6.076648 16.855988)
      (xy -7.862306 16.853588)
      (xy -9.61402 16.850685)
      (xy -11.323974 16.847281)
      (xy -12.984355 16.843379)
      (xy -14.587347 16.838981)
      (xy -16.125134 16.834087)
      (xy -17.589903 16.828701)
      (xy -18.973837 16.822824)
      (xy -20.269122 16.816458)
      (xy -21.467943 16.809604)
      (xy -22.562486 16.802266)
      (xy -23.544934 16.794444)
      (xy -24.407473 16.786141)
      (xy -25.142287 16.777359)
      (xy -25.741563 16.768099)
      (xy -26.197485 16.758364)
      (xy -26.502237 16.748156)
      (xy -26.648006 16.737475)
      (xy -26.659838 16.733912)
      (xy -26.671721 16.670906)
      (xy -26.682566 16.508849)
      (xy -26.692392 16.243327)
      (xy -26.701219 15.869928)
      (xy -26.709064 15.384239)
      (xy -26.715947 14.781847)
      (xy -26.721886 14.05834)
      (xy -26.7269 13.209306)
      (xy -26.731008 12.230331)
      (xy -26.734229 11.117003)
      (xy -26.73658 9.864908)
      (xy -26.738082 8.469636)
      (xy -26.738753 6.926772)
      (xy -26.738611 5.231905)
      (xy -26.737676 3.380621)
      (xy -26.735966 1.368508)
      (xy -26.733705 -0.643922)
      (xy -26.712334 -17.907)
      (xy 27.982333 -17.907)
      (xy 27.982333 17.991667)
      (xy -27.897667 17.991667)
      (xy -27.897667 -19.092333)
      (xy 29.167666 -19.092333)
      (xy 29.167666 19.177)
      (xy -29.083 19.177)
      (xy -29.104347 -0.499108)
      (xy -29.106625 -2.814693)
      (xy -29.108242 -4.96509)
      (xy -29.109182 -6.954445)
      (xy -29.10943 -8.786902)
      (xy -29.108971 -10.466606)
      (xy -29.107789 -11.997703)
      (xy -29.105869 -13.384336)
      (xy -29.103195 -14.630651)
      (xy -29.099751 -15.740793)
      (xy -29.095523 -16.718906)
      (xy -29.090495 -17.569136)
      (xy -29.08465 -18.295627)
      (xy -29.077975 -18.902524)
      (xy -29.070453 -19.393972)
      (xy -29.062068 -19.774115)
      (xy -29.052806 -20.047099)
      (xy -29.042652 -20.217068)
      (xy -29.031588 -20.288168)
      (xy -29.03048 -20.289942)
      (xy -29.000611 -20.300457)
      (xy -28.925761 -20.310334)
      (xy -28.801072 -20.319591)
      (xy -28.621686 -20.328247)
      (xy -28.382745 -20.336321)
      (xy -28.079393 -20.343832)
      (xy -27.706771 -20.350797)
      (xy -27.260022 -20.357237)
      (xy -26.734288 -20.36317)
      (xy -26.124711 -20.368614)
      (xy -25.426434 -20.373589)
      (xy -24.634599 -20.378113)
      (xy -23.744349 -20.382205)
      (xy -22.750826 -20.385884)
      (xy -21.649172 -20.389169)
      (xy -20.434529 -20.392077)
      (xy -19.10204 -20.394629)
      (xy -17.646848 -20.396843)
      (xy -16.064094 -20.398738)
      (xy -14.348921 -20.400332)
      (xy -12.496472 -20.401644)
      (xy -10.501888 -20.402694)
      (xy -8.360313 -20.403499)
      (xy -6.066887 -20.404079)
      (xy -3.616755 -20.404452)
      (xy -1.005057 -20.404638)
      (xy 0.639319 -20.404667)
      (xy 3.312158 -20.404618)
      (xy 5.820823 -20.404458)
      (xy 8.17047 -20.404162)
      (xy 10.36626 -20.403708)
      (xy 12.413349 -20.403072)
      (xy 14.316896 -20.402232)
      (xy 16.08206 -20.401164)
      (xy 17.713999 -20.399845)
      (xy 19.217871 -20.398252)
      (xy 20.598835 -20.396363)
      (xy 21.862048 -20.394153)
      (xy 23.01267 -20.3916)
      (xy 24.055857 -20.388681)
      (xy 24.99677 -20.385372)
      (xy 25.840566 -20.381651)
      (xy 26.592403 -20.377495)
      (xy 27.257439 -20.372879)
      (xy 27.840834 -20.367782)
      (xy 28.347745 -20.36218)
      (xy 28.78333 -20.35605)
      (xy 29.152749 -20.349368)
      (xy 29.461158 -20.342113)
      (xy 29.713718 -20.33426)
      (xy 29.915585 -20.325787)
      (xy 30.071918 -20.31667)
      (xy 30.187875 -20.306887)
      (xy 30.268616 -20.296414)
      (xy 30.319297 -20.285228)
      (xy 30.345078 -20.273306)
      (xy 30.346952 -20.271619)
      (xy 30.361418 -20.245985)
      (xy 30.374808 -20.194947)
      (xy 30.387163 -20.112253)
      (xy 30.398523 -19.991648)
      (xy 30.40893 -19.826876)
      (xy 30.418425 -19.611684)
      (xy 30.427048 -19.339817)
      (xy 30.434841 -19.005022)
      (xy 30.441844 -18.601042)
      (xy 30.448098 -18.121624)
      (xy 30.453645 -17.560514)
      (xy 30.458525 -16.911457)
      (xy 30.46278 -16.168199)
      (xy 30.466449 -15.324485)
      (xy 30.469575 -14.37406)
      (xy 30.472199 -13.310671)
      (xy 30.47436 -12.128063)
      (xy 30.476101 -10.819981)
      (xy 30.477461 -9.380171)
      (xy 30.478483 -7.802378)
      (xy 30.479207 -6.080349)
      (xy 30.479673 -4.207828)
      (xy 30.479924 -2.178562)
      (xy 30.479999 0.013705)
      (xy 30.48 0.042333)
      (xy 30.479926 2.236689)
      (xy 30.479678 4.267966)
      (xy 30.479214 6.142419)
      (xy 30.478494 7.866301)
      (xy 30.477476 9.445868)
      (xy 30.47612 10.887375)
      (xy 30.474384 12.197074)
      (xy 30.472229 13.381221)
      (xy 30.469611 14.44607)
      (xy 30.466492 15.397877)
      (xy 30.462829 16.242894)
      (xy 30.458582 16.987376)
      (xy 30.45371 17.637579)
      (xy 30.448172 18.199756)
      (xy 30.441927 18.680162)
      (xy 30.434933 19.085051)
      (xy 30.427151 19.420678)
      (xy 30.418539 19.693297)
      (xy 30.409055 19.909163)
      (xy 30.39866 20.074529)
      (xy 30.387312 20.195652)
      (xy 30.37497 20.278784)
      (xy 30.361593 20.33018)
      (xy 30.347141 20.356095)
      (xy 30.346952 20.356286)
      (xy 30.324306 20.368194)
      (xy 30.277521 20.379377)
      (xy 30.201489 20.389858)
      (xy 30.091104 20.399659)
      (xy 29.94126 20.408803)
      (xy 29.746849 20.417312)
      (xy 29.502765 20.425209)
      (xy 29.2039 20.432515)
      (xy 28.84515 20.439253)
      (xy 28.421406 20.445446)
      (xy 27.927563 20.451117)
      (xy 27.358512 20.456286)
      (xy 26.709149 20.460978)
      (xy 25.974366 20.465214)
      (xy 25.149056 20.469017)
      (xy 24.228113 20.472409)
      (xy 23.20643 20.475413)
      (xy 22.078901 20.47805)
      (xy 20.840418 20.480345)
      (xy 19.485876 20.482318)
      (xy 18.010166 20.483992)
      (xy 16.408184 20.48539)
      (xy 14.674821 20.486534)
      (xy 12.804972 20.487447)
      (xy 10.79353 20.488151)
      (xy 8.635387 20.488668)
      (xy 6.325438 20.489021)
      (xy 3.858576 20.489233)
      (xy 1.229693 20.489325)
      (xy 0.042333 20.489333)
      (xy -2.658139 20.489286)
      (xy -5.194384 20.489129)
      (xy -7.57151 20.48884)
      (xy -9.794622 20.488396)
      (xy -11.868827 20.487776)
      (xy -13.799233 20.486956)
      (xy -15.590945 20.485914)
      (xy -17.249071 20.484629)
      (xy -18.778717 20.483077)
      (xy -20.184989 20.481235)
      (xy -21.472995 20.479083)
      (xy -22.647841 20.476596)
      (xy -23.714634 20.473753)
      (xy -24.678481 20.470532)
      (xy -25.544487 20.466909)
      (xy -26.317761 20.462863)
      (xy -27.003408 20.458371)
      (xy -27.606535 20.45341)
      (xy -28.132249 20.447959)
      (xy -28.585657 20.441995)
      (xy -28.971864 20.435495)
      (xy -29.295979 20.428437)
      (xy -29.563107 20.420798)
      (xy -29.778356 20.412557)
      (xy -29.946831 20.40369)
      (xy -30.07364 20.394175)
      (xy -30.163889 20.383991)
      (xy -30.222686 20.373114)
      (xy -30.255135 20.361521)
      (xy -30.262286 20.356286)
      (xy -30.276552 20.330887)
      (xy -30.289772 20.280187)
      (xy -30.301984 20.198022)
      (xy -30.313229 20.078228)
      (xy -30.323546 19.91464)
      (xy -30.332973 19.701097)
      (xy -30.341551 19.431433)
      (xy -30.349317 19.099485)
      (xy -30.356312 18.699089)
      (xy -30.362575 18.224082)
      (xy -30.368145 17.668301)
      (xy -30.37306 17.02558)
      (xy -30.377361 16.289757)
      (xy -30.381087 15.454668)
      (xy -30.384276 14.51415)
      (xy -30.386969 13.462037)
      (xy -30.389204 12.292168)
      (xy -30.39102 10.998378)
      (xy -30.392457 9.574503)
      (xy -30.393554 8.01438)
      (xy -30.39435 6.311845)
      (xy -30.394884 4.460735)
      (xy -30.395196 2.454885)
      (xy -30.395325 0.288132)
      (xy -30.395334 -0.550333)
      (xy -30.395263 -2.777805)
      (xy -30.395022 -4.842107)
      (xy -30.394574 -6.749403)
      (xy -30.393879 -8.505857)
      (xy -30.392898 -10.117633)
      (xy -30.39159 -11.590893)
      (xy -30.389918 -12.931803)
      (xy -30.387842 -14.146525)
      (xy -30.385322 -15.241224)
      (xy -30.38232 -16.222062)
      (xy -30.378796 -17.095204)
      (xy -30.374711 -17.866813)
      (xy -30.370026 -18.543054)
      (xy -30.364702 -19.130089)
      (xy -30.358698 -19.634082)
      (xy -30.351977 -20.061198)
      (xy -30.344499 -20.4176)
      (xy -30.336224 -20.709451)
      (xy -30.327114 -20.942915)
      (xy -30.317129 -21.124156)
      (xy -30.30623 -21.259338)
      (xy -30.294378 -21.354624)
      (xy -30.281533 -21.416179)
      (xy -30.267656 -21.450164)
      (xy -30.262286 -21.456953)
      (xy -30.239777 -21.468743)
      (xy -30.193185 -21.479823)
      (xy -30.117456 -21.490215)
      (xy -30.007535 -21.499939)
      (xy -29.858369 -21.509019)
      (xy -29.664902 -21.517476)
      (xy -29.422082 -21.525331)
      (xy -29.124852 -21.532607)
      (xy -28.768159 -21.539324)
      (xy -28.34695 -21.545505)
      (xy -27.856168 -21.551172)
      (xy -27.29076 -21.556346)
      (xy -26.645672 -21.561049)
      (xy -25.91585 -21.565302)
      (xy -25.096239 -21.569128)
      (xy -24.181784 -21.572549)
      (xy -23.167431 -21.575585)
      (xy -22.048127 -21.578259)
      (xy -20.818817 -21.580592)
      (xy -19.474446 -21.582606)
      (xy -18.00996 -21.584324)
      (xy -16.420305 -21.585765)
      (xy -14.700426 -21.586954)
      (xy -12.84527 -21.58791)
      (xy -10.849782 -21.588657)
      (xy -8.708907 -21.589215)
      (xy -6.417591 -21.589606)
      (xy -3.97078 -21.589852)
      (xy -1.36342 -21.589975)
      (xy 0.666447 -21.59)
      (xy 3.508513 -21.589883)
      (xy 6.185337 -21.589521)
      (xy 8.701014 -21.588902)
      (xy 11.059634 -21.588013)
      (xy 13.265292 -21.586839)
      (xy 15.322078 -21.585367)
      (xy 17.234085 -21.583584)
      (xy 19.005406 -21.581476)
      (xy 20.640134 -21.57903)
      (xy 22.14236 -21.576232)
      (xy 23.516177 -21.57307)
      (xy 24.765678 -21.569528)
      (xy 25.894955 -21.565595)
      (xy 26.9081 -21.561257)
      (xy 27.809206 -21.556499)
      (xy 28.602365 -21.551309)
      (xy 29.29167 -21.545674)
      (xy 29.881212 -21.539579)
      (xy 30.375086 -21.533011)
      (xy 30.777382 -21.525957)
      (xy 31.092194 -21.518404)
      (xy 31.323613 -21.510337)
      (xy 31.475733 -21.501744)
      (xy 31.552645 -21.492611)
      (xy 31.563733 -21.4884)
      (xy 31.574861 -21.393765)
      (xy 31.585401 -21.138512)
      (xy 31.595353 -20.731357)
      (xy 31.604718 -20.181014)
      (xy 31.613494 -19.4962)
      (xy 31.621683 -18.685629)
      (xy 31.629284 -17.758015)
      (xy 31.636297 -16.722075)
      (xy 31.642722 -15.586522)
      (xy 31.648559 -14.360073)
      (xy 31.653809 -13.051441)
      (xy 31.65847 -11.669343)
      (xy 31.662544 -10.222493)
      (xy 31.66603 -8.719607)
      (xy 31.668928 -7.169398)
      (xy 31.671238 -5.580583)
      (xy 31.672961 -3.961877)
      (xy 31.674095 -2.321993)
      (xy 31.674642 -0.669649)
      (xy 31.674601 0.986442)
      (xy 31.673971 2.637565)
      (xy 31.672755 4.275004)
      (xy 31.67095 5.890045)
      (xy 31.668557 7.473971)
      (xy 31.665577 9.018069)
      (xy 31.662008 10.513623)
      (xy 31.657852 11.951919)
      (xy 31.653108 13.32424)
      (xy 31.647776 14.621873)
      (xy 31.641856 15.836102)
      (xy 31.635349 16.958211)
      (xy 31.628253 17.979487)
      (xy 31.62057 18.891213)
      (xy 31.612299 19.684676)
      (xy 31.60344 20.351159)
      (xy 31.593993 20.881948)
      (xy 31.583958 21.268328)
      (xy 31.573336 21.501583)
      (xy 31.563733 21.573066)
      (xy 31.470833 21.582298)
      (xy 31.215791 21.591129)
      (xy 30.805798 21.59956)
      (xy 30.248045 21.60759)
      (xy 29.549723 21.615219)
      (xy 28.718023 21.622448)
      (xy 27.760135 21.629277)
      (xy 26.683251 21.635705)
      (xy 25.494561 21.641732)
      (xy 24.201256 21.647359)
      (xy 22.810528 21.652585)
      (xy 21.329567 21.657411)
      (xy 19.765564 21.661836)
      (xy 18.125709 21.665861)
      (xy 16.417195 21.669485)
      (xy 14.647212 21.672708)
      (xy 12.82295 21.675531)
      (xy 10.951601 21.677954)
      (xy 9.040356 21.679976)
      (xy 7.096405 21.681597)
      (xy 5.126939 21.682818)
      (xy 3.13915 21.683639)
      (xy 1.140228 21.684058)
      (xy -0.862636 21.684078)
      (xy -2.862251 21.683696)
      (xy -4.851426 21.682915)
      (xy -6.82297 21.681732)
      (xy -8.769693 21.68015)
      (xy -10.684403 21.678166)
      (xy -12.559909 21.675782)
      (xy -14.38902 21.672998)
      (xy -16.164547 21.669813)
      (xy -17.879297 21.666227)
      (xy -19.52608 21.662241)
      (xy -21.097704 21.657855)
      (xy -22.58698 21.653067)
      (xy -23.986715 21.64788)
      (xy -25.28972 21.642292)
      (xy -26.488803 21.636303)
      (xy -27.576773 21.629913)
      (xy -28.54644 21.623124)
      (xy -29.390612 21.615933)
      (xy -30.102099 21.608342)
      (xy -30.673709 21.600351)
      (xy -31.098253 21.591959)
      (xy -31.368538 21.583166)
      (xy -31.477373 21.573973)
      (xy -31.479067 21.573067)
      (xy -31.490048 21.478566)
      (xy -31.500457 21.223329)
      (xy -31.510294 20.815953)
      (xy -31.51956 20.265033)
      (xy -31.528253 19.579167)
      (xy -31.536374 18.766949)
      (xy -31.543923 17.836977)
      (xy -31.5509 16.797847)
      (xy -31.557306 15.658155)
      (xy -31.563139 14.426498)
      (xy -31.5684 13.111472)
      (xy -31.573089 11.721673)
      (xy -31.577207 10.265697)
      (xy -31.580752 8.752141)
      (xy -31.583725 7.189602)
      (xy -31.586126 5.586675)
      (xy -31.587956 3.951956)
      (xy -31.589213 2.294043)
      (xy -31.589899 0.621532)
      (xy -31.590012 -1.056982)
      (xy -31.589553 -2.732902)
      (xy -31.588523 -4.397631)
      (xy -31.58692 -6.042573)
      (xy -31.584746 -7.659133)
      (xy -31.581999 -9.238712)
      (xy -31.578681 -10.772717)
      (xy -31.57479 -12.252549)
      (xy -31.570328 -13.669612)
      (xy -31.565293 -15.015311)
      (xy -31.559687 -16.281049)
      (xy -31.553508 -17.458229)
      (xy -31.546758 -18.538256)
      (xy -31.539435 -19.512533)
      (xy -31.531541 -20.372463)
      (xy -31.523074 -21.109451)
      (xy -31.514036 -21.7149)
      (xy -31.504426 -22.180213)
      (xy -31.494243 -22.496795)
      (xy -31.483489 -22.656048)
      (xy -31.479067 -22.673733)
      (xy -31.386244 -22.682881)
      (xy -31.131211 -22.691636)
      (xy -30.721094 -22.699997)
      (xy -30.163015 -22.707965)
      (xy -29.464098 -22.71554)
      (xy -28.631467 -22.722723)
      (xy -27.672246 -22.729511)
      (xy -26.593558 -22.735907)
      (xy -25.402528 -22.74191)
      (xy -24.106279 -22.74752)
      (xy -22.711935 -22.752736)
      (xy -21.22662 -22.75756)
      (xy -19.657457 -22.76199)
      (xy -18.011571 -22.766027)
      (xy -16.296085 -22.769671)
      (xy -14.518122 -22.772922)
      (xy -12.684807 -22.775779)
      (xy -10.803264 -22.778244)
      (xy -8.880616 -22.780316)
      (xy -6.923987 -22.781994)
      (xy -4.940501 -22.78328)
      (xy -2.937281 -22.784172)
      (xy -0.921452 -22.784672)
      (xy 1.099863 -22.784778)
    ) (layer "F.Mask") (width 0) (fill solid) (tstamp b06ce446-c27e-47df-a4e3-d10b64552c26))
  (pad "1" thru_hole roundrect (at -25.25 15.25 45) (size 1 1) (drill 0.5) (layers *.Cu) (roundrect_rratio 0.25) (tstamp 9538e4ed-27e6-4c37-b989-9859dc0d49e8))
  (pad "2" thru_hole roundrect (at -32.5 20 45) (size 1 1) (drill 0.5) (layers *.Cu) (roundrect_rratio 0.25) (tstamp 851ab59d-1fd7-45c7-a775-29797327cafc))
)
