(footprint "RISC_V_Logo" (version 20210606) (generator bitmap2component) (layer "F.Cu")
  (at 0 0)
(attr board_only exclude_from_pos_files exclude_from_bom)
 (fp_text reference "G*" (at 0 0) (layer F.SilkS)
  (effects (font (thickness 0.3)))
  )
  (fp_text value "LOGO" (at 0.75 0) (layer F.SilkS) hide
  (effects (font (thickness 0.3)))
  )
  (fp_poly (pts (xy -14.463889 -1.692940) (xy -14.215199 -1.691964) (xy -14.031445 -1.688203) (xy -13.896934 -1.679891) (xy -13.795972 -1.665259) (xy -13.712866 -1.642542) (xy -13.631924 -1.609973) (xy -13.600888 -1.595773)
     (xy -13.408512 -1.466454) (xy -13.271813 -1.293254) (xy -13.190972 -1.090793) (xy -13.166172 -0.873689) (xy -13.197593 -0.656562) (xy -13.285417 -0.454031) (xy -13.429825 -0.280714) (xy -13.583246 -0.174480)
     (xy -13.663908 -0.135738) (xy -13.744674 -0.109333) (xy -13.843193 -0.092948) (xy -13.977118 -0.084270) (xy -14.164101 -0.080983) (xy -14.298881 -0.080635) (xy -14.836825 -0.080635) (xy -14.836825 0.105301)
     (xy -14.835221 0.162805) (xy -14.826561 0.216440) (xy -14.805075 0.274685) (xy -14.764990 0.346022) (xy -14.700536 0.438931) (xy -14.605941 0.561892) (xy -14.475435 0.723385) (xy -14.303246 0.931892)
     (xy -14.144035 1.123317) (xy -13.949086 1.357339) (xy -13.761320 1.582512) (xy -13.589894 1.787872) (xy -13.443964 1.962456) (xy -13.332685 2.095303) (xy -13.272312 2.167063) (xy -13.093379 2.378730)
     (xy -15.119047 2.378730) (xy -15.119047 -1.693334) )(layer F.SilkS) (width  0.000000)
  )
  (fp_poly (pts (xy -10.387438 0.170910) (xy -10.378728 0.271707) (xy -10.371540 0.437904) (xy -10.366122 0.661887) (xy -10.362722 0.936042) (xy -10.361587 1.241777) (xy -10.361587 2.378730) (xy -11.167936 2.378730)
     (xy -11.413014 2.377829) (xy -11.628104 2.375317) (xy -11.801136 2.371476) (xy -11.920041 2.366591) (xy -11.972749 2.360945) (xy -11.974286 2.359773) (xy -11.951872 2.324206) (xy -11.889049 2.232464)
     (xy -11.792447 2.093867) (xy -11.668696 1.917734) (xy -11.524425 1.713384) (xy -11.366262 1.490136) (xy -11.200839 1.257310) (xy -11.034783 1.024223) (xy -10.874725 0.800197) (xy -10.727294 0.594549)
     (xy -10.599119 0.416600) (xy -10.496830 0.275667) (xy -10.427056 0.181071) (xy -10.397420 0.143127) )(layer F.SilkS) (width  0.000000)
  )
  (fp_poly (pts (xy -10.362417 -1.149048) (xy -11.433723 0.362857) (xy -11.653074 0.671818) (xy -11.858491 0.959995) (xy -12.045232 1.220818) (xy -12.208557 1.447719) (xy -12.343722 1.634127) (xy -12.445987 1.773474)
     (xy -12.510608 1.859192) (xy -12.532493 1.885019) (xy -12.565485 1.858714) (xy -12.642205 1.779357) (xy -12.754676 1.655770) (xy -12.894921 1.496776) (xy -13.054964 1.311198) (xy -13.114227 1.241543)
     (xy -13.668497 0.587810) (xy -13.516868 0.542452) (xy -13.196040 0.408519) (xy -12.922877 0.215853) (xy -12.705558 -0.028699) (xy -12.586928 -0.235940) (xy -12.505081 -0.485875) (xy -12.463366 -0.774136)
     (xy -12.463293 -1.069160) (xy -12.506373 -1.339382) (xy -12.530369 -1.417879) (xy -12.680148 -1.738272) (xy -12.881563 -1.997432) (xy -13.133625 -2.194324) (xy -13.385614 -2.311481) (xy -13.427053 -2.327337)
     (xy -13.447693 -2.340328) (xy -13.441100 -2.350751) (xy -13.400838 -2.358902) (xy -13.320473 -2.365075) (xy -13.193569 -2.369568) (xy -13.013692 -2.372675) (xy -12.774407 -2.374693) (xy -12.469278 -2.375916)
     (xy -12.091870 -2.376642) (xy -11.964206 -2.376806) (xy -10.361587 -2.378730) )(layer F.SilkS) (width  0.000000)
  )
  (fp_poly (pts (xy -4.562688 -1.571669) (xy -4.147005 -1.569460) (xy -3.802836 -1.565644) (xy -3.525627 -1.560114) (xy -3.310825 -1.552758) (xy -3.153874 -1.543470) (xy -3.050220 -1.532138) (xy -3.008328 -1.523351)
     (xy -2.859342 -1.451127) (xy -2.700077 -1.329533) (xy -2.552264 -1.180100) (xy -2.437633 -1.024361) (xy -2.382576 -0.903314) (xy -2.339378 -0.615725) (xy -2.374727 -0.344273) (xy -2.442844 -0.169123)
     (xy -2.598060 0.062877) (xy -2.798626 0.230805) (xy -3.031845 0.328495) (xy -3.157513 0.370973) (xy -3.209086 0.414008) (xy -3.208568 0.429193) (xy -3.179562 0.476856) (xy -3.110952 0.578131)
     (xy -3.010743 0.721547) (xy -2.886938 0.895637) (xy -2.763940 1.066326) (xy -2.338669 1.653016) (xy -3.174171 1.653016) (xy -3.633887 1.018016) (xy -4.093602 0.383016) (xy -6.249206 0.361540)
     (xy -6.249206 1.653016) (xy -6.934603 1.653016) (xy -6.934603 -0.282223) (xy -6.249206 -0.282223) (xy -3.190932 -0.282223) (xy -3.107371 -0.388453) (xy -3.034284 -0.530682) (xy -3.035031 -0.667635)
     (xy -3.108843 -0.785232) (xy -3.130040 -0.803423) (xy -3.159936 -0.824966) (xy -3.194776 -0.842450) (xy -3.242729 -0.856297) (xy -3.311962 -0.866932) (xy -3.410644 -0.874778) (xy -3.546943 -0.880257)
     (xy -3.729028 -0.883794) (xy -3.965066 -0.885811) (xy -4.263227 -0.886731) (xy -4.631678 -0.886978) (xy -4.742739 -0.886984) (xy -6.249206 -0.886984) (xy -6.249206 -0.282223) (xy -6.934603 -0.282223)
     (xy -6.934603 -1.572381) (xy -5.054439 -1.572381) )(layer F.SilkS) (width  0.000000)
  )
  (fp_poly (pts (xy -1.128889 1.653016) (xy -1.814286 1.653016) (xy -1.814286 -1.572381) (xy -1.128889 -1.572381) )(layer F.SilkS) (width  0.000000)
  )
  (fp_poly (pts (xy 3.991429 -0.886984) (xy 2.122915 -0.886984) (xy 1.686243 -0.886888) (xy 1.323095 -0.886402) (xy 1.026360 -0.885227) (xy 0.788926 -0.883068) (xy 0.603684 -0.879627) (xy 0.463520 -0.874607)
     (xy 0.361326 -0.867710) (xy 0.289989 -0.858640) (xy 0.242399 -0.847100) (xy 0.211445 -0.832791) (xy 0.190015 -0.815417) (xy 0.180958 -0.805829) (xy 0.117911 -0.685278) (xy 0.113523 -0.549624)
     (xy 0.166391 -0.430095) (xy 0.199334 -0.396892) (xy 0.260734 -0.360161) (xy 0.347350 -0.336798) (xy 0.477329 -0.323828) (xy 0.668817 -0.318278) (xy 0.679784 -0.318148) (xy 0.825867 -0.316017)
     (xy 1.037157 -0.312274) (xy 1.298249 -0.307227) (xy 1.593739 -0.301182) (xy 1.908221 -0.294445) (xy 2.200613 -0.287910) (xy 3.332813 -0.262064) (xy 3.530023 -0.140046) (xy 3.736952 0.030896)
     (xy 3.883821 0.241881) (xy 3.968861 0.478887) (xy 3.990300 0.727893) (xy 3.946369 0.974876) (xy 3.835296 1.205814) (xy 3.718043 1.349018) (xy 3.656179 1.411926) (xy 3.601754 1.464791)
     (xy 3.547493 1.508523) (xy 3.486122 1.544034) (xy 3.410367 1.572236) (xy 3.312952 1.594039) (xy 3.186604 1.610357) (xy 3.024049 1.622099) (xy 2.818012 1.630177) (xy 2.561219 1.635503)
     (xy 2.246395 1.638989) (xy 1.866267 1.641546) (xy 1.413560 1.644084) (xy 1.360714 1.644392) (xy -0.604762 1.655927) (xy -0.604762 0.967619) (xy 1.244404 0.967619) (xy 1.678643 0.967526)
     (xy 2.039526 0.967041) (xy 2.334328 0.965853) (xy 2.570329 0.963651) (xy 2.754806 0.960123) (xy 2.895037 0.954959) (xy 2.998299 0.947847) (xy 3.071870 0.938477) (xy 3.123028 0.926538)
     (xy 3.159051 0.911718) (xy 3.187216 0.893707) (xy 3.199801 0.884058) (xy 3.283165 0.771940) (xy 3.307232 0.631390) (xy 3.268553 0.492143) (xy 3.248863 0.461277) (xy 3.230869 0.441271)
     (xy 3.203754 0.424822) (xy 3.159731 0.411451) (xy 3.091012 0.400680) (xy 2.989809 0.392031) (xy 2.848335 0.385026) (xy 2.658802 0.379186) (xy 2.413422 0.374033) (xy 2.104407 0.369088)
     (xy 1.723971 0.363875) (xy 1.646244 0.362857) (xy 1.251812 0.357565) (xy 0.929652 0.352638) (xy 0.671403 0.347544) (xy 0.468706 0.341751) (xy 0.313202 0.334724) (xy 0.196533 0.325932)
     (xy 0.110338 0.314842) (xy 0.046259 0.300920) (xy -0.004063 0.283635) (xy -0.048988 0.262452) (xy -0.065484 0.253752) (xy -0.290258 0.092825) (xy -0.448478 -0.113482) (xy -0.539652 -0.364314)
     (xy -0.564066 -0.613547) (xy -0.554551 -0.786786) (xy -0.519110 -0.924680) (xy -0.446947 -1.070353) (xy -0.289937 -1.275877) (xy -0.088206 -1.437350) (xy 0.124196 -1.532994) (xy 0.195726 -1.541891)
     (xy 0.340907 -1.549917) (xy 0.552761 -1.556937) (xy 0.824306 -1.562812) (xy 1.148564 -1.567405) (xy 1.518553 -1.570580) (xy 1.927294 -1.572198) (xy 2.126480 -1.572381) (xy 3.991429 -1.572381)
     )(layer F.SilkS) (width  0.000000)
  )
  (fp_poly (pts (xy 8.950476 -0.886984) (xy 7.336172 -0.886984) (xy 6.930707 -0.886783) (xy 6.597818 -0.885943) (xy 6.329446 -0.884113) (xy 6.117532 -0.880941) (xy 5.954017 -0.876074) (xy 5.830842 -0.869159)
     (xy 5.739949 -0.859846) (xy 5.673278 -0.847780) (xy 5.622771 -0.832611) (xy 5.580370 -0.813986) (xy 5.572283 -0.809883) (xy 5.354810 -0.658733) (xy 5.186577 -0.461921) (xy 5.078047 -0.235436)
     (xy 5.039683 0.004106) (xy 5.075200 0.283974) (xy 5.180667 0.524081) (xy 5.354452 0.721795) (xy 5.571662 0.863187) (xy 5.781229 0.967619) (xy 8.950476 0.967619) (xy 8.950476 1.653016)
     (xy 7.347857 1.648966) (xy 6.989884 1.647184) (xy 6.652089 1.643830) (xy 6.344147 1.639124) (xy 6.075736 1.633284) (xy 5.856531 1.626530) (xy 5.696209 1.619082) (xy 5.604446 1.611160)
     (xy 5.593422 1.609148) (xy 5.326323 1.509965) (xy 5.064404 1.347062) (xy 4.826392 1.136207) (xy 4.631012 0.893170) (xy 4.530446 0.714087) (xy 4.476984 0.590289) (xy 4.442993 0.482020)
     (xy 4.424169 0.364206) (xy 4.416207 0.211770) (xy 4.414762 0.040317) (xy 4.416882 -0.159152) (xy 4.425976 -0.301974) (xy 4.446142 -0.412088) (xy 4.481478 -0.513430) (xy 4.526059 -0.609647)
     (xy 4.720294 -0.921906) (xy 4.967065 -1.182349) (xy 5.256457 -1.382367) (xy 5.561048 -1.508347) (xy 5.629270 -1.525040) (xy 5.714061 -1.538657) (xy 5.823644 -1.549490) (xy 5.966244 -1.557830)
     (xy 6.150083 -1.563970) (xy 6.383385 -1.568202) (xy 6.674373 -1.570817) (xy 7.031272 -1.572107) (xy 7.365254 -1.572381) (xy 8.950476 -1.572381) )(layer F.SilkS) (width  0.000000)
  )
  (fp_poly (pts (xy 14.864587 -1.570559) (xy 14.992300 -1.565666) (xy 15.066814 -1.558561) (xy 15.078730 -1.553980) (xy 15.059095 -1.516441) (xy 15.002881 -1.416265) (xy 14.914123 -1.260474) (xy 14.796860 -1.056088)
     (xy 14.655126 -0.810129) (xy 14.492960 -0.529619) (xy 14.314397 -0.221579) (xy 14.157404 0.048639) (xy 13.236078 1.632857) (xy 12.837008 1.643963) (xy 12.437937 1.655070) (xy 11.631587 0.276038)
     (xy 11.448249 -0.037677) (xy 11.272657 -0.338454) (xy 11.110152 -0.617120) (xy 10.966078 -0.864499) (xy 10.845776 -1.071419) (xy 10.754590 -1.228704) (xy 10.697861 -1.327180) (xy 10.691872 -1.337688)
     (xy 10.558505 -1.572381) (xy 11.349365 -1.569357) (xy 12.054921 -0.335534) (xy 12.220420 -0.046565) (xy 12.374395 0.221432) (xy 12.511998 0.460084) (xy 12.628381 0.661020) (xy 12.718699 0.815870)
     (xy 12.778103 0.916261) (xy 12.800794 0.952688) (xy 12.822598 0.949071) (xy 12.865502 0.902497) (xy 12.932247 0.808637) (xy 13.025573 0.663160) (xy 13.148221 0.461735) (xy 13.302932 0.200032)
     (xy 13.492445 -0.126282) (xy 13.582506 -0.282647) (xy 14.323901 -1.572381) (xy 14.701316 -1.572381) )(layer F.SilkS) (width  0.000000)
  )
  (fp_poly (pts (xy 10.724445 0.362857) (xy 9.393968 0.362857) (xy 9.393968 -0.241905) (xy 10.724445 -0.241905) )(layer F.SilkS) (width  0.000000)
  )
)
