(footprint "SW_SPDT_CK-JS102011SCQN" (version 20211014) (generator pcbnew)
  (layer "F.Cu")
  (tedit 63C16D3C)
  (descr "Sub-miniature slide switch, right-angle, http://www.ckswitches.com/media/1422/js.pdf")
  (tags "switch spdt")
  (attr smd)
  (fp_text reference "REF**" (at 0 -4.8) (layer "F.SilkS")
    (effects (font (size 1 1) (thickness 0.15)))
    (tstamp cec56f41-f67a-43ea-a45d-7ded7ceb45a0)
  )
  (fp_text value "SW_SPDT_CK-JS102011SCQN" (at 0 -2.9) (layer "F.Fab")
    (effects (font (size 1 1) (thickness 0.15)))
    (tstamp 7cca3ba3-c965-4b67-8639-0ee9c1823a32)
  )
  (fp_text user "${REFERENCE}" (at 0 0) (layer "F.Fab")
    (effects (font (size 1 1) (thickness 0.15)))
    (tstamp 5c8b6d12-a8c9-4772-9d40-6ea028f5e12f)
  )
  (fp_line (start 4.6 -1.9) (end 4.6 1.9) (layer "F.SilkS") (width 0.12) (tstamp 007cc7d8-844c-4be2-8f04-88296d198cd0))
  (fp_line (start -0.7 -1.9) (end -1.8 -1.9) (layer "F.SilkS") (width 0.12) (tstamp 4f5bdd3a-df57-4843-acfc-f001eab7aa58))
  (fp_line (start -4.6 -1.9) (end -3.2 -1.9) (layer "F.SilkS") (width 0.12) (tstamp 56e24846-dc7d-414e-9cfd-b52f99608ad7))
  (fp_line (start -4.6 1.9) (end -4.6 1.9) (layer "F.SilkS") (width 0.12) (tstamp 590b9005-3ee0-4a05-8a0e-3c7d0507d350))
  (fp_line (start 0.7 -1.9) (end 0.7 -1.9) (layer "F.SilkS") (width 0.12) (tstamp 6e24e98e-b55b-4bfd-b556-ab35e9e43b0e))
  (fp_line (start -0.7 1.9) (end -1.8 1.9) (layer "F.SilkS") (width 0.12) (tstamp 7461e9d1-522f-460a-b1f0-acb99fd8370f))
  (fp_line (start 1.8 -1.9) (end 0.7 -1.9) (layer "F.SilkS") (width 0.12) (tstamp 9e1aeeac-d6f9-4d12-8ec4-1c58e750b52d))
  (fp_line (start 3.2 -1.9) (end 4.6 -1.9) (layer "F.SilkS") (width 0.12) (tstamp a4fd4a28-68d4-488a-bade-c5086e6b3f63))
  (fp_line (start 1.8 1.9) (end 0.7 1.9) (layer "F.SilkS") (width 0.12) (tstamp af727da3-98f8-418d-8b1f-906591749ad3))
  (fp_line (start -1.8 -1.9) (end -1.8 -1.9) (layer "F.SilkS") (width 0.12) (tstamp b4095305-4540-406d-8582-65793f1ad47c))
  (fp_line (start -4.6 1.9) (end -4.6 -1.9) (layer "F.SilkS") (width 0.12) (tstamp c24328f2-be7e-4039-b082-e04589334d22))
  (fp_line (start 3.2 1.9) (end 4.6 1.9) (layer "F.SilkS") (width 0.12) (tstamp ed10b01b-98f3-4e63-a574-24ca8ef3b795))
  (fp_line (start -4.6 1.9) (end -3.2 1.9) (layer "F.SilkS") (width 0.12) (tstamp f9a535bc-f795-4a1a-aa7e-5f2a03bb119b))
  (fp_line (start 5 2.25) (end 5 -2.25) (layer "F.CrtYd") (width 0.05) (tstamp 0728511b-0d67-4f7c-b019-cd27eedf9a3f))
  (fp_line (start -3.5 2.25) (end -3.5 4.5) (layer "F.CrtYd") (width 0.05) (tstamp 183d8ec7-b2ce-42c6-b78a-9c123f36035b))
  (fp_line (start 3.5 2.25) (end 5 2.25) (layer "F.CrtYd") (width 0.05) (tstamp 1baec634-527e-4ac0-b392-866e17ebae79))
  (fp_line (start 3.5 4.5) (end 3.5 2.25) (layer "F.CrtYd") (width 0.05) (tstamp 3f1a3adf-babe-4502-9ab5-035ee768cabc))
  (fp_line (start -5 -2.25) (end -5 2.25) (layer "F.CrtYd") (width 0.05) (tstamp 69ebb936-a747-4096-abb7-34911b80fe62))
  (fp_line (start -3.5 -2.25) (end -5 -2.25) (layer "F.CrtYd") (width 0.05) (tstamp 8a841220-2222-46b0-b2f1-ae4685414dad))
  (fp_line (start 3.5 -2.25) (end 3.5 -4.5) (layer "F.CrtYd") (width 0.05) (tstamp a68906b4-c6e7-463b-8be3-e45843ff7977))
  (fp_line (start -5 2.25) (end -3.5 2.25) (layer "F.CrtYd") (width 0.05) (tstamp b6d91f93-66c1-418d-a584-f967022764c8))
  (fp_line (start -3.5 -4.5) (end -3.5 -2.25) (layer "F.CrtYd") (width 0.05) (tstamp b9a89b28-05a9-45f7-8e62-617a9968b0bb))
  (fp_line (start -3.5 4.5) (end 3.5 4.5) (layer "F.CrtYd") (width 0.05) (tstamp e64cac0b-0d95-45a2-9830-d76c280a8c0c))
  (fp_line (start 3.5 -4.5) (end -3.5 -4.5) (layer "F.CrtYd") (width 0.05) (tstamp f00c4d6d-778e-4292-abae-9d0b535925ee))
  (fp_line (start 5 -2.25) (end 3.5 -2.25) (layer "F.CrtYd") (width 0.05) (tstamp f073931d-3d3d-4d46-99ef-eeb0fb02aec1))
  (fp_line (start -5 -2.25) (end -5 -2.25) (layer "F.CrtYd") (width 0.05) (tstamp f3d86b23-a485-40a4-91a1-7da7f79bf9f9))
  (fp_line (start -2 1.8) (end -2 1.8) (layer "F.Fab") (width 0.1) (tstamp 1f130982-de07-4949-a39c-251321baba83))
  (fp_line (start -4.5 1.8) (end -4.5 1.8) (layer "F.Fab") (width 0.1) (tstamp 4f91fe6e-6052-49f0-8b59-0c8b51a899dc))
  (fp_line (start -4.4 1.8) (end -4.5 1.8) (layer "F.Fab") (width 0.1) (tstamp 53631433-543f-41a0-9786-430a94b4f004))
  (fp_line (start -4.5 1.8) (end -4.5 1.8) (layer "F.Fab") (width 0.1) (tstamp 578404bb-0005-4b96-bb30-456ce21ef07f))
  (fp_line (start -2.8 1.8) (end -2.8 1.8) (layer "F.Fab") (width 0.1) (tstamp 74c7cc42-f25b-4fcb-9797-1fcf14c44ce0))
  (fp_line (start -0.3 1.8) (end -0.3 1.8) (layer "F.Fab") (width 0.1) (tstamp 76a29cfb-a78d-4c27-986b-d366664eee50))
  (fp_line (start 4.5 1.8) (end -4.4 1.8) (layer "F.Fab") (width 0.1) (tstamp 84ba9730-eed4-44d6-b0e0-fc59f15c2997))
  (fp_line (start -4.5 -1.8) (end 4.5 -1.8) (layer "F.Fab") (width 0.1) (tstamp 85c83a1a-dd07-48e7-a304-a2a5478dd39b))
  (fp_line (start -4.5 -1.8) (end -4.5 1.8) (layer "F.Fab") (width 0.1) (tstamp 9b3b04da-1b70-49b8-8427-6ddcefc4735c))
  (fp_line (start -1.5 1.8) (end -1.5 1.8) (layer "F.Fab") (width 0.1) (tstamp b5ad1000-f861-4ef8-b325-b015e373432a))
  (fp_line (start 2.8 1.8) (end 2.8 1.8) (layer "F.Fab") (width 0.1) (tstamp c9d7d00b-8ffe-4f9e-8119-a461036e5821))
  (fp_line (start 4.5 -1.8) (end 4.5 1.8) (layer "F.Fab") (width 0.1) (tstamp caab040c-5b2e-419b-8544-3c15ee45aab2))
  (pad "1" smd rect (at -2.5 2.75) (size 1.25 2.5) (layers "F.Cu" "F.Paste" "F.Mask") (tstamp 215dc115-3941-43c3-89a6-dc6b1ee01c26))
  (pad "1" smd rect (at -2.5 -2.75) (size 1.25 2.5) (layers "F.Cu" "F.Paste" "F.Mask") (tstamp 29335feb-4151-44aa-9640-41583345c7f0))
  (pad "2" smd rect (at 0 -2.75) (size 1.25 2.5) (layers "F.Cu" "F.Paste" "F.Mask") (tstamp afaca5c8-1ae4-425f-8534-d3d6f7e05359))
  (pad "2" smd rect (at 0 2.75) (size 1.25 2.5) (layers "F.Cu" "F.Paste" "F.Mask") (tstamp ef294142-e418-400c-91fe-21b9ae621ffb))
  (pad "3" smd rect (at 2.5 -2.75) (size 1.25 2.5) (layers "F.Cu" "F.Paste" "F.Mask") (tstamp 0157b91f-85d0-4483-95f1-29a5cdc70947))
  (pad "3" smd rect (at 2.5 2.75) (size 1.25 2.5) (layers "F.Cu" "F.Paste" "F.Mask") (tstamp ef849e43-804a-4725-97fe-05a55d1aaff8))
  (model "${KICAD6_3DMODEL_DIR}/Button_Switch_SMD.3dshapes/SW_SPDT_CK-JS102011SAQN.wrl"
    (offset (xyz 0 0 0))
    (scale (xyz 1 1 1))
    (rotate (xyz 0 0 0))
  )
)
